<svg xmlns="http://www.w3.org/2000/svg" xmlns:xlink="http://www.w3.org/1999/xlink" width="286.672" height="286.672" viewBox="0 0 286.672 286.672">
  <defs>
    <filter id="Rectangle_13" x="0" y="0" width="286.672" height="286.672" filterUnits="userSpaceOnUse">
      <feOffset dy="10" input="SourceAlpha"/>
      <feGaussianBlur stdDeviation="10" result="blur"/>
      <feFlood flood-opacity="0.161"/>
      <feComposite operator="in" in2="blur"/>
      <feComposite in="SourceGraphic"/>
    </filter>
  </defs>
  <g id="Group_39" data-name="Group 39" transform="translate(-331 -2552.632)">
    <g transform="matrix(1, 0, 0, 1, 331, 2552.63)" filter="url(#Rectangle_13)">
      <rect id="Rectangle_13-2" data-name="Rectangle 13" width="189" height="189" rx="10" transform="translate(30 62.52) rotate(-13)" fill="#fc9f0a"/>
    </g>
    <g id="medal_1_" data-name="medal (1)" transform="translate(321.642 2628.039)">
      <path id="Path_27" data-name="Path 27" d="M216.233,342.386l-1.656,3.356-3.7.538a3.509,3.509,0,0,0-1.944,5.983l2.68,2.612-.633,3.689a3.509,3.509,0,0,0,5.09,3.7l3.313-1.742,3.313,1.742a3.509,3.509,0,0,0,5.09-3.7l-.633-3.689,2.68-2.612a3.509,3.509,0,0,0-1.944-5.983l-3.7-.538-1.656-3.356A3.508,3.508,0,0,0,216.233,342.386Zm1.542,4.982,1.6-3.249,1.6,3.249a3.507,3.507,0,0,0,2.641,1.919l3.585.521-2.595,2.529a3.508,3.508,0,0,0-1.008,3.1l.612,3.571-3.206-1.686a3.507,3.507,0,0,0-3.265,0l-3.207,1.686.612-3.57a3.508,3.508,0,0,0-1.009-3.106l-2.594-2.529,3.585-.521a3.507,3.507,0,0,0,2.642-1.919Z" transform="translate(-64.685 -259.005)" fill="#fff"/>
      <path id="Path_28" data-name="Path 28" d="M191.364,307.12a1.794,1.794,0,0,0,1.364,2.139,17.5,17.5,0,1,1-7.6,0,1.794,1.794,0,1,0-.775-3.5,21.085,21.085,0,1,0,9.147,0A1.8,1.8,0,0,0,191.364,307.12Z" transform="translate(-34.236 -232.591)" fill="#fff"/>
      <path id="Path_29" data-name="Path 29" d="M174.141,29.41a1.793,1.793,0,0,0,2.34-.981L186.3,4.445A3.225,3.225,0,0,0,183.315,0H170.309a3.212,3.212,0,0,0-2.983,2L154.693,32.863,142.061,2h0a3.212,3.212,0,0,0-2.983-2H126.072a3.225,3.225,0,0,0-2.983,4.445l20.729,50.641a5.365,5.365,0,0,0-3.707,5.095V69.02a28.715,28.715,0,1,0,29.166,0V60.18a5.364,5.364,0,0,0-3.707-5.095l7.721-18.862a1.794,1.794,0,0,0-3.321-1.359l-8.17,19.96H149.581L170.553,3.588h12.219L173.16,27.07A1.794,1.794,0,0,0,174.141,29.41Zm5.68,64.337a25.127,25.127,0,1,1-25.127-25.127h0a25.154,25.154,0,0,1,25.126,25.127Zm-15.9-35.334a1.77,1.77,0,0,1,1.768,1.768v7.035a28.8,28.8,0,0,0-11-2.184h-.009A28.81,28.81,0,0,0,143.7,67.215V60.181a1.77,1.77,0,0,1,1.768-1.768h18.454Zm-17.275-5.889L126.614,3.588h12.219L152.755,37.6Z" transform="translate(0)" fill="#fff"/>
    </g>
  </g>
</svg>
